EESchema Schematic File Version 2  date Mon Dec  2 21:29:25 2013
LIBS:power
LIBS:device
LIBS:transistors
LIBS:conn
LIBS:linear
LIBS:regul
LIBS:74xx
LIBS:cmos4000
LIBS:adc-dac
LIBS:memory
LIBS:xilinx
LIBS:special
LIBS:microcontrollers
LIBS:dsp
LIBS:microchip
LIBS:analog_switches
LIBS:motorola
LIBS:texas
LIBS:intel
LIBS:audio
LIBS:interface
LIBS:digital-audio
LIBS:philips
LIBS:display
LIBS:cypress
LIBS:siliconi
LIBS:opto
LIBS:atmel
LIBS:contrib
LIBS:valves
EELAYER 27 0
EELAYER END
$Descr A4 11693 8268
encoding utf-8
Sheet 1 1
Title ""
Date "2 dec 2013"
Rev ""
Comp ""
Comment1 ""
Comment2 ""
Comment3 ""
Comment4 ""
$EndDescr
$Comp
L CONN_10X2 P20
U 1 1 529CEA86
P 3350 2600
F 0 "P20" H 3350 3150 60  0000 C CNN
F 1 "CONN_10X2" V 3350 2500 50  0000 C CNN
F 2 "~" H 3350 2600 60  0000 C CNN
F 3 "~" H 3350 2600 60  0000 C CNN
	1    3350 2600
	1    0    0    -1  
$EndComp
$Comp
L CONN_5X2 P10
U 1 1 529CEA95
P 5150 2700
F 0 "P10" H 5150 3000 60  0000 C CNN
F 1 "CONN_5X2" V 5150 2700 50  0000 C CNN
F 2 "~" H 5150 2700 60  0000 C CNN
F 3 "~" H 5150 2700 60  0000 C CNN
	1    5150 2700
	1    0    0    -1  
$EndComp
Wire Wire Line
	2950 2150 2950 1850
Wire Wire Line
	2950 1850 4750 1850
Wire Wire Line
	4750 1850 4750 2500
Wire Wire Line
	3750 2250 3750 3100
Wire Wire Line
	4750 2600 4750 2700
Wire Wire Line
	4750 2700 4850 2700
Wire Wire Line
	4850 2700 4850 2900
Wire Wire Line
	4850 2900 4750 2900
Wire Wire Line
	4750 2900 4750 2950
Connection ~ 3750 3050
Wire Wire Line
	4750 2800 4500 2800
Wire Wire Line
	4500 2800 4500 3350
Wire Wire Line
	4500 3350 2750 3350
Wire Wire Line
	2750 3350 2750 2650
Wire Wire Line
	2750 2650 2950 2650
Wire Wire Line
	5550 2500 5550 1800
Wire Wire Line
	5550 1800 2850 1800
Wire Wire Line
	2850 1800 2850 2450
Wire Wire Line
	2850 2450 2950 2450
Wire Wire Line
	5550 2600 5600 2600
Wire Wire Line
	5600 2600 5600 1750
Wire Wire Line
	5600 1750 2800 1750
Wire Wire Line
	2800 1750 2800 2550
Wire Wire Line
	2800 2550 2950 2550
Wire Wire Line
	5550 2700 5700 2700
Wire Wire Line
	5700 2700 5700 1650
Wire Wire Line
	5700 1650 2550 1650
Wire Wire Line
	2550 1650 2550 2750
Wire Wire Line
	2550 2750 2950 2750
Wire Wire Line
	5550 2800 5850 2800
Wire Wire Line
	5850 2800 5850 1550
Wire Wire Line
	5850 1550 2350 1550
Wire Wire Line
	2350 1550 2350 2350
Wire Wire Line
	2350 2350 2950 2350
Wire Wire Line
	5550 2900 5550 3200
Wire Wire Line
	5550 3200 2850 3200
Wire Wire Line
	2850 3200 2850 2850
Wire Wire Line
	2850 2850 2950 2850
$Comp
L CONN_5X2 P1
U 1 1 529CED05
P 4450 4050
F 0 "P1" H 4450 4350 60  0000 C CNN
F 1 "CONN_5X2" V 4450 4050 50  0000 C CNN
F 2 "~" H 4450 4050 60  0000 C CNN
F 3 "~" H 4450 4050 60  0000 C CNN
	1    4450 4050
	1    0    0    -1  
$EndComp
$Comp
L CONN_5X2 P2
U 1 1 529CED0B
P 5500 4050
F 0 "P2" H 5500 4350 60  0000 C CNN
F 1 "CONN_5X2" V 5500 4050 50  0000 C CNN
F 2 "~" H 5500 4050 60  0000 C CNN
F 3 "~" H 5500 4050 60  0000 C CNN
	1    5500 4050
	-1   0    0    -1  
$EndComp
Wire Wire Line
	4850 3850 5100 3850
Wire Wire Line
	5100 3950 4850 3950
Wire Wire Line
	4850 4050 5100 4050
Wire Wire Line
	5100 4150 4850 4150
Wire Wire Line
	4850 4250 5100 4250
Wire Wire Line
	5900 3850 5900 3700
Wire Wire Line
	5900 3700 4050 3700
Wire Wire Line
	4050 3700 4050 3850
Wire Wire Line
	5900 3950 6000 3950
Wire Wire Line
	6000 3950 6000 3650
Wire Wire Line
	6000 3650 4000 3650
Wire Wire Line
	4000 3650 4000 3950
Wire Wire Line
	4000 3950 4050 3950
Wire Wire Line
	4050 4050 3950 4050
Wire Wire Line
	3950 4050 3950 3600
Wire Wire Line
	3950 3600 6050 3600
Wire Wire Line
	6050 3600 6050 4050
Wire Wire Line
	6050 4050 5900 4050
Wire Wire Line
	5900 4150 6150 4150
Wire Wire Line
	6150 4150 6150 3550
Wire Wire Line
	6150 3550 3850 3550
Wire Wire Line
	3850 3550 3850 4150
Wire Wire Line
	3850 4150 4050 4150
Wire Wire Line
	4050 4250 4050 4350
Wire Wire Line
	4050 4350 5900 4350
Wire Wire Line
	5900 4350 5900 4250
NoConn ~ 2950 2250
NoConn ~ 2950 2950
NoConn ~ 2950 3050
Wire Wire Line
	3750 2150 2950 2150
Connection ~ 3750 2250
Connection ~ 3750 2350
Connection ~ 3750 2450
Connection ~ 3750 2550
Connection ~ 3750 2650
Connection ~ 3750 2750
Connection ~ 3750 2850
Connection ~ 3750 2950
Connection ~ 4750 2900
Connection ~ 4750 2600
Connection ~ 4750 2700
Wire Wire Line
	4750 2950 4000 2950
Wire Wire Line
	4000 2950 4000 3100
Wire Wire Line
	4000 3100 3750 3100
$EndSCHEMATC
